…
-   `names(df)` : gives the column names (variables) of a dataframe. Similarly, `ncol()` is equaivalent to `length()`. `nrow()` and `dim()` give number of rows and row x col dimensions of the dataframe.
-   `as_tibble(df)` : a much nicer summary of large dataframes.

``` r
as_tibble(gapminder)
```

    ## # A tibble: 1,704 × 6
    ##        country continent  year lifeExp      pop gdpPercap
    ##         <fctr>    <fctr> <int>   <dbl>    <int>     <dbl>
    ## 1  Afghanistan      Asia  1952  28.801  8425333  779.4453
    ## 2  Afghanistan      Asia  1957  30.332  9240934  820.8530
    ## 3  Afghanistan      Asia  1962  31.997 10267083  853.1007
    ## 4  Afghanistan      Asia  1967  34.020 11537966  836.1971
    ## 5  Afghanistan      Asia  1972  36.088 13079460  739.9811
    ## 6  Afghanistan      Asia  1977  38.438 14880372  786.1134
    ## 7  Afghanistan      Asia  1982  39.854 12881816  978.0114
    ## 8  Afghanistan      Asia  1987  40.822 13867957  852.3959
    ## 9  Afghanistan      Asia  1992  41.674 16317921  649.3414
    ## 10 Afghanistan      Asia  1997  41.763 22227415  635.3414
    ## # ... with 1,694 more rows
…
-   `first(col/var)` : Returns the first value of the specified variable within a group bucket. **Caution:** Raw order of the observed values in the dataframe matters. Arrange data, and double-check before applying this function.

``` r
g %>%
  select(country, year, lifeExp) %>%
  filter(year > 1990) %>%
  group_by(country) %>%
  mutate(lifeGain = lifeExp - first(lifeExp)) %>%
  arrange(lifeGain)
```

    ## Source: local data frame [568 x 4]
    ## Groups: country [142]
    ## 
    ##         country  year lifeExp lifeGain
    ##          <fctr> <int>   <dbl>    <dbl>
    ## 1      Zimbabwe  2002  39.989  -20.388
    ## 2     Swaziland  2007  39.613  -18.861
    ## 3       Lesotho  2007  42.592  -17.093
    ## 4      Zimbabwe  2007  43.487  -16.890
    ## 5      Botswana  2002  46.634  -16.111
    ## 6       Lesotho  2002  44.593  -15.092
    ## 7     Swaziland  2002  43.869  -14.605
    ## 8      Zimbabwe  1997  46.809  -13.568
    ## 9  South Africa  2007  49.339  -12.549
    ## 10     Botswana  2007  50.728  -12.017
    ## # ... with 558 more rows
…
