…
g <- gapminder
```

``` r
analysis_1 <- g %>%
  arrange(country, year) %>%
  group_by(continent, country) %>%
  mutate(changeGdpPC = ((gdpPercap - lag(gdpPercap))*100/lag(gdpPercap)),
         changeLEPC = ((lifeExp - lag(lifeExp))*100/lag(lifeExp))) # Brackets galore

options(tibble.width = Inf) # Shows all columns of a tibble... a bit ugly though.
analysis_1
```

    ## Source: local data frame [1,704 x 8]
    ## Groups: continent, country [142]
    ## 
    ##        country continent  year lifeExp      pop gdpPercap changeGdpPC
    ##         <fctr>    <fctr> <int>   <dbl>    <int>     <dbl>       <dbl>
    ## 1  Afghanistan      Asia  1952  28.801  8425333  779.4453          NA
    ## 2  Afghanistan      Asia  1957  30.332  9240934  820.8530    5.312459
    ## 3  Afghanistan      Asia  1962  31.997 10267083  853.1007    3.928557
    ## 4  Afghanistan      Asia  1967  34.020 11537966  836.1971   -1.981427
    ## 5  Afghanistan      Asia  1972  36.088 13079460  739.9811  -11.506381
    ## 6  Afghanistan      Asia  1977  38.438 14880372  786.1134    6.234248
    ## 7  Afghanistan      Asia  1982  39.854 12881816  978.0114   24.410993
    ## 8  Afghanistan      Asia  1987  40.822 13867957  852.3959  -12.843970
    ## 9  Afghanistan      Asia  1992  41.674 16317921  649.3414  -23.821623
    ## 10 Afghanistan      Asia  1997  41.763 22227415  635.3414   -2.156038
    ##    changeLEPC
    ##         <dbl>
    ## 1          NA
    ## 2   5.3157876
    ## 3   5.4892523
    ## 4   6.3224677
    ## 5   6.0787772
    ## 6   6.5118599
    ## 7   3.6838545
    ## 8   2.4288654
    ## 9   2.0871099
    ## 10  0.2135624
    ## # ... with 1,694 more rows
…
